Semester_5/SIFO/SIFO_Lab_2/simulation/qsim/SIFO_Lab_2.msim.vcd
$comment
	File created using the following command:
		vcd file SIFO_Lab_2.msim.vcd -direction
$end
$date
	Fri Sep  9 22:05:46 2022
$end
$version
	Questa Intel Starter FPGA Edition Version 2021.2
$end
$timescale
	1ps
$end

$scope module SIFO_Lab_2_vlg_vec_tst $end
$var reg 1 ! CLK $end
$var wire 1 " Y0 $end
$var wire 1 # Y1 $end
$var wire 1 $ Y2 $end
$var wire 1 % Y3 $end

$scope module i1 $end
$var wire 1 & gnd $end
$var wire 1 ' vcc $end
$var wire 1 ( unknown $end
$var tri1 1 ) devclrn $end
$var tri1 1 * devpor $end
$var tri1 1 + devoe $end
$var wire 1 , Y0~output_o $end
$var wire 1 - Y1~output_o $end
$var wire 1 . Y2~output_o $end
$var wire 1 / Y3~output_o $end
$var wire 1 0 CLK~input_o $end
$var wire 1 1 inst1~0_combout $end
$var wire 1 2 inst2~0_combout $end
$var wire 1 3 inst2~q $end
$var wire 1 4 inst3~0_combout $end
$var wire 1 5 inst3~q $end
$var wire 1 6 inst9~0_combout $end
$var wire 1 7 inst9~q $end
$var wire 1 8 AMOGUS~combout $end
$var wire 1 9 inst1~q $end
$upscope $end
$upscope $end
$enddefinitions $end
#0
$dumpvars
0!
0"
0#
0$
0%
0&
1'
x(
1)
1*
1+
0,
0-
0.
0/
00
11
12
03
14
05
16
07
08
09
$end
#20000
1!
10
19
1,
01
1"
#40000
0!
00
#60000
1!
10
09
0,
11
0"
13
1-
02
1#
#80000
0!
00
#100000
1!
10
19
1,
01
1"
#120000
0!
00
#140000
1!
10
09
0,
11
0"
03
0-
12
0#
15
1.
04
1$
#160000
0!
00
#180000
1!
10
19
1,
01
1"
#200000
0!
00
#220000
1!
10
09
0,
11
0"
13
1-
02
1#
#240000
0!
00
#260000
1!
10
19
1,
01
1"
#280000
0!
00
#300000
1!
10
09
0,
11
0"
03
0-
12
0#
05
0.
14
0$
17
1/
06
1%
#320000
0!
00
#340000
1!
10
19
1,
01
1"
#360000
0!
00
#380000
1!
10
09
0,
11
0"
13
1-
02
1#
#400000
0!
00
#420000
1!
10
19
1,
18
01
1"
03
07
09
0,
0/
0-
08
11
16
12
0#
0%
0"
#440000
0!
00
#460000
1!
10
19
1,
01
1"
#480000
0!
00
#500000
1!
10
09
0,
11
0"
13
1-
02
1#
#520000
0!
00
#540000
1!
10
19
1,
01
1"
#560000
0!
00
#580000
1!
10
09
0,
11
0"
03
0-
12
0#
15
1.
04
1$
#600000
0!
00
#620000
1!
10
19
1,
01
1"
#640000
0!
00
#660000
1!
10
09
0,
11
0"
13
1-
02
1#
#680000
0!
00
#700000
1!
10
19
1,
01
1"
#720000
0!
00
#740000
1!
10
09
0,
11
0"
03
0-
12
0#
05
0.
14
0$
17
1/
06
1%
#760000
0!
00
#780000
1!
10
19
1,
01
1"
#800000
0!
00
#820000
1!
10
09
0,
11
0"
13
1-
02
1#
#840000
0!
00
#860000
1!
10
19
1,
18
01
1"
03
07
09
0,
0/
0-
08
11
16
12
0#
0%
0"
#880000
0!
00
#900000
1!
10
19
1,
01
1"
#920000
0!
00
#940000
1!
10
09
0,
11
0"
13
1-
02
1#
#960000
0!
00
#980000
1!
10
19
1,
01
1"
