Semester_5/SIFO/SIFO_Lab_2/simulation/qsim/SIFO_Lab_2.msim.vcd
$comment
	File created using the following command:
		vcd file SIFO_Lab_2.msim.vcd -direction
$end
$date
	Sat Sep 24 16:40:58 2022
$end
$version
	Questa Intel Starter FPGA Edition Version 2021.2
$end
$timescale
	1ps
$end

$scope module Block_2_D_vlg_vec_tst $end
$var reg 1 ! CLK_IN $end
$var wire 1 " CLK_D $end
$var wire 1 # CLK_IN_COUNT [3] $end
$var wire 1 $ CLK_IN_COUNT [2] $end
$var wire 1 % CLK_IN_COUNT [1] $end
$var wire 1 & CLK_IN_COUNT [0] $end
$var wire 1 ' q [3] $end
$var wire 1 ( q [2] $end
$var wire 1 ) q [1] $end
$var wire 1 * q [0] $end

$scope module i1 $end
$var wire 1 + gnd $end
$var wire 1 , vcc $end
$var wire 1 - unknown $end
$var tri1 1 . devclrn $end
$var tri1 1 / devpor $end
$var tri1 1 0 devoe $end
$var wire 1 1 CLK_IN~combout $end
$var wire 1 2 COUNTER_2|LPM_COUNTER_component|auto_generated|counter_cella0~COUT $end
$var wire 1 3 COUNTER_2|LPM_COUNTER_component|auto_generated|counter_cella1~COUT $end
$var wire 1 4 COUNTER_2|LPM_COUNTER_component|auto_generated|counter_cella2~COUT $end
$var wire 1 5 COMPARE_B9|LPM_COMPARE_component|auto_generated|aneb_result_wire[0]~0_combout $end
$var wire 1 6 COUNTER_1|LPM_COUNTER_component|auto_generated|counter_cella0~COUT $end
$var wire 1 7 COUNTER_1|LPM_COUNTER_component|auto_generated|counter_cella1~COUT $end
$var wire 1 8 COUNTER_1|LPM_COUNTER_component|auto_generated|counter_cella2~COUT $end
$var wire 1 9 T~regout $end
$var wire 1 : COUNTER_3|LPM_COUNTER_component|auto_generated|counter_cella0~COUT $end
$var wire 1 ; COUNTER_3|LPM_COUNTER_component|auto_generated|counter_cella1~COUT $end
$var wire 1 < COUNTER_3|LPM_COUNTER_component|auto_generated|counter_cella2~COUT $end
$var wire 1 = COUNTER_2|LPM_COUNTER_component|auto_generated|safe_q [3] $end
$var wire 1 > COUNTER_2|LPM_COUNTER_component|auto_generated|safe_q [2] $end
$var wire 1 ? COUNTER_2|LPM_COUNTER_component|auto_generated|safe_q [1] $end
$var wire 1 @ COUNTER_2|LPM_COUNTER_component|auto_generated|safe_q [0] $end
$var wire 1 A COUNTER_3|LPM_COUNTER_component|auto_generated|safe_q [3] $end
$var wire 1 B COUNTER_3|LPM_COUNTER_component|auto_generated|safe_q [2] $end
$var wire 1 C COUNTER_3|LPM_COUNTER_component|auto_generated|safe_q [1] $end
$var wire 1 D COUNTER_3|LPM_COUNTER_component|auto_generated|safe_q [0] $end
$var wire 1 E COUNTER_1|LPM_COUNTER_component|auto_generated|safe_q [3] $end
$var wire 1 F COUNTER_1|LPM_COUNTER_component|auto_generated|safe_q [2] $end
$var wire 1 G COUNTER_1|LPM_COUNTER_component|auto_generated|safe_q [1] $end
$var wire 1 H COUNTER_1|LPM_COUNTER_component|auto_generated|safe_q [0] $end
$var wire 1 I COMPARE_B4|LPM_COMPARE_component|auto_generated|aneb_result_wire [0] $end
$upscope $end
$upscope $end
$enddefinitions $end
#0
$dumpvars
1!
0"
0&
0%
0$
0#
0*
0)
0(
0'
0+
1,
x-
1.
1/
10
11
02
13
04
05
06
17
08
09
0:
1;
0<
0@
0?
0>
0=
0D
0C
0B
0A
0H
0G
0F
0E
0I
$end
#10000
0!
01
1@
12
#18800
1!
11
1D
1H
1:
16
1&
1*
#30000
0!
01
1?
0@
03
02
13
#38800
1!
11
1C
0D
1G
0H
0;
0:
07
06
1%
0&
1)
0*
1;
17
#50000
0!
01
1@
12
03
#58800
1!
11
1D
1H
1:
16
1&
1*
0;
07
#70000
0!
01
1>
0?
0@
14
13
02
04
#78800
1!
11
1B
0C
0D
1F
0G
0H
1<
1;
0:
18
17
06
1$
0%
0&
1(
0)
0*
0<
08
#90000
0!
01
1@
12
#98800
1!
11
1D
1H
1:
16
1&
1*
1I
19
1"
#110000
0!
01
1?
0@
03
02
14
13
04
#118800
1!
11
1C
0D
1G
0H
0;
0:
07
06
1%
0&
1)
0I
0*
1<
1;
18
17
0<
08
#130000
0!
01
1@
12
03
14
#138800
1!
11
1D
1H
1:
16
1&
1*
0;
07
1<
18
#150000
0!
01
1=
0>
0?
0@
04
13
02
#158800
1!
11
1A
0B
0C
0D
1E
0F
0G
0H
0<
1;
0:
08
17
06
1#
0$
0%
0&
1'
0(
0)
0*
#170000
0!
01
1@
12
#178800
1!
11
1D
1H
1:
16
1&
1*
#190000
0!
01
1?
0@
03
02
15
13
09
0E
0H
0=
0?
06
0"
0'
0*
05
#198800
1!
11
1C
0D
1H
0;
0:
16
1%
0&
1*
1;
#210000
0!
01
1@
12
#218800
1!
11
1D
1G
0H
1:
07
06
1&
1)
0*
0;
17
#230000
0!
01
1?
0@
03
02
13
#238800
1!
11
1B
0C
0D
1H
1<
1;
0:
16
1$
0%
0&
1*
0<
07
#250000
0!
01
1@
12
03
#258800
1!
11
1D
1F
0G
0H
1:
18
17
06
1&
1(
0)
0*
08
#270000
0!
01
1>
0?
0@
14
13
02
04
#278800
1!
11
1C
0D
1H
0;
0:
16
1%
0&
1*
1I
1<
1;
0<
19
1"
#290000
0!
01
1@
12
#298800
1!
11
1D
1G
0H
1:
07
06
1&
1)
0I
0*
0;
18
17
1<
08
#310000
0!
01
1?
0@
03
02
14
13
04
#318800
1!
11
0A
0B
0C
0D
1H
0<
1;
0:
16
0#
0$
0%
0&
1*
07
18
#330000
0!
01
1@
12
03
14
#338800
1!
11
1D
1E
0F
0G
0H
1:
08
17
06
1&
1'
0(
0)
0*
#350000
0!
01
1=
0>
0?
0@
04
13
02
#358800
1!
11
1C
0D
1H
0;
0:
16
1%
0&
1*
1;
#370000
0!
01
1@
12
#378800
1!
11
1D
1G
0H
1:
07
06
1&
1)
0*
0;
17
#390000
0!
01
1?
0@
03
02
15
13
09
0E
0G
0=
0?
0"
0'
0)
05
#398800
1!
11
1B
0C
0D
1H
1<
1;
0:
16
1$
0%
0&
1*
0<
#410000
0!
01
1@
12
#418800
1!
11
1D
1G
0H
1:
07
06
1&
1)
0*
17
#430000
0!
01
1?
0@
03
02
13
#438800
1!
11
1C
0D
1H
0;
0:
16
1%
0&
1*
1<
1;
07
0<
#450000
0!
01
1@
12
03
#458800
1!
11
1D
1F
0G
0H
1:
18
17
06
1&
1(
0)
0*
0;
08
1<
#470000
0!
01
1>
0?
0@
14
13
02
04
#478800
1!
11
1A
0B
0C
0D
1H
0<
1;
0:
16
1#
0$
0%
0&
1*
1I
19
1"
#490000
0!
01
1@
12
#498800
1!
11
1D
1G
0H
1:
07
06
1&
1)
0I
0*
18
17
08
#510000
0!
01
1?
0@
03
02
14
13
04
#518800
1!
11
1C
0D
1H
0;
0:
16
1%
0&
1*
1;
07
18
#530000
0!
01
1@
12
03
14
#538800
1!
11
1D
1E
0F
0G
0H
1:
08
17
06
1&
1'
0(
0)
0*
0;
#550000
0!
01
1=
0>
0?
0@
04
13
02
#558800
1!
11
1B
0C
0D
1H
1<
1;
0:
16
1$
0%
0&
1*
0<
#570000
0!
01
1@
12
#578800
1!
11
1D
1G
0H
1:
07
06
1&
1)
0*
17
#590000
0!
01
1?
0@
03
02
15
13
09
0E
0G
0=
0?
0"
0'
0)
05
#598800
1!
11
1C
0D
1H
0;
0:
16
1%
0&
1*
1<
1;
0<
#610000
0!
01
1@
12
#618800
1!
11
1D
1G
0H
1:
07
06
1&
1)
0*
0;
17
1<
#630000
0!
01
1?
0@
03
02
13
#638800
1!
11
0A
0B
0C
0D
1H
0<
1;
0:
16
0#
0$
0%
0&
1*
07
#650000
0!
01
1@
12
03
#658800
1!
11
1D
1F
0G
0H
1:
18
17
06
1&
1(
0)
0*
08
#670000
0!
01
1>
0?
0@
14
13
02
04
#678800
1!
11
1C
0D
1H
0;
0:
16
1%
0&
1*
1I
1;
19
1"
#690000
0!
01
1@
12
#698800
1!
11
1D
1G
0H
1:
07
06
1&
1)
0I
0*
0;
18
17
08
#710000
0!
01
1?
0@
03
02
14
13
04
#718800
1!
11
1B
0C
0D
1H
1<
1;
0:
16
1$
0%
0&
1*
0<
07
18
#730000
0!
01
1@
12
03
14
#738800
1!
11
1D
1E
0F
0G
0H
1:
08
17
06
1&
1'
0(
0)
0*
#750000
0!
01
1=
0>
0?
0@
04
13
02
#758800
1!
11
1C
0D
1H
0;
0:
16
1%
0&
1*
1<
1;
0<
#770000
0!
01
1@
12
#778800
1!
11
1D
1G
0H
1:
07
06
1&
1)
0*
0;
17
1<
#790000
0!
01
1?
0@
03
02
15
13
09
0E
0G
0=
0?
0"
0'
0)
05
#798800
1!
11
1A
0B
0C
0D
1H
0<
1;
0:
16
1#
0$
0%
0&
1*
#810000
0!
01
1@
12
#818800
1!
11
1D
1G
0H
1:
07
06
1&
1)
0*
17
#830000
0!
01
1?
0@
03
02
13
#838800
1!
11
1C
0D
1H
0;
0:
16
1%
0&
1*
1;
07
#850000
0!
01
1@
12
03
#858800
1!
11
1D
1F
0G
0H
1:
18
17
06
1&
1(
0)
0*
0;
08
#870000
0!
01
1>
0?
0@
14
13
02
04
#878800
1!
11
1B
0C
0D
1H
1<
1;
0:
16
1$
0%
0&
1*
1I
0<
19
1"
#890000
0!
01
1@
12
#898800
1!
11
1D
1G
0H
1:
07
06
1&
1)
0I
0*
18
17
08
#910000
0!
01
1?
0@
03
02
14
13
04
#918800
1!
11
1C
0D
1H
0;
0:
16
1%
0&
1*
1<
1;
07
0<
18
#930000
0!
01
1@
12
03
14
#938800
1!
11
1D
1E
0F
0G
0H
1:
08
17
06
1&
1'
0(
0)
0*
0;
1<
#950000
0!
01
1=
0>
0?
0@
04
13
02
#958800
1!
11
0A
0B
0C
0D
1H
0<
1;
0:
16
0#
0$
0%
0&
1*
#970000
0!
01
1@
12
#978800
1!
11
1D
1G
0H
1:
07
06
1&
1)
0*
17
#990000
0!
01
1?
0@
03
02
15
13
09
0E
0G
0=
0?
0"
0'
0)
05
#998800
1!
11
1C
0D
1H
0;
0:
16
1%
0&
1*
1;
