Semester_5/SIFO/SIFO_Lab_2/simulation/qsim/SIFO_Lab_2.msim.vcd
$comment
	File created using the following command:
		vcd file SIFO_Lab_2.msim.vcd -direction
$end
$date
	Sun Sep 18 21:15:44 2022
$end
$version
	Questa Intel Starter FPGA Edition Version 2021.2
$end
$timescale
	1ps
$end

$scope module Block_dop_vlg_vec_tst $end
$var reg 1 ! CLK_50hz $end
$var reg 8 " M [7:0] $end
$var reg 8 # N [7:0] $end
$var wire 1 $ Change $end
$var wire 1 % CLK10T $end
$var wire 1 & MbNIndicator $end
$var wire 1 ' q [7] $end
$var wire 1 ( q [6] $end
$var wire 1 ) q [5] $end
$var wire 1 * q [4] $end
$var wire 1 + q [3] $end
$var wire 1 , q [2] $end
$var wire 1 - q [1] $end
$var wire 1 . q [0] $end

$scope module i1 $end
$var wire 1 / gnd $end
$var wire 1 0 vcc $end
$var wire 1 1 unknown $end
$var tri1 1 2 devclrn $end
$var tri1 1 3 devpor $end
$var tri1 1 4 devoe $end
$var wire 1 5 MbiggerN|LPM_COMPARE_component|auto_generated|op_1~5 $end
$var wire 1 6 MbiggerN|LPM_COMPARE_component|auto_generated|op_1~10 $end
$var wire 1 7 MbiggerN|LPM_COMPARE_component|auto_generated|op_1~15 $end
$var wire 1 8 MbiggerN|LPM_COMPARE_component|auto_generated|op_1~20 $end
$var wire 1 9 MbiggerN|LPM_COMPARE_component|auto_generated|op_1~25 $end
$var wire 1 : MbiggerN|LPM_COMPARE_component|auto_generated|op_1~30 $end
$var wire 1 ; MbiggerN|LPM_COMPARE_component|auto_generated|op_1~35 $end
$var wire 1 < CLK_50hz~combout $end
$var wire 1 = COUNTER|LPM_COUNTER_component|auto_generated|counter_cella0~COUT $end
$var wire 1 > COUNTER|LPM_COUNTER_component|auto_generated|counter_cella0~COUTCOUT1_1 $end
$var wire 1 ? NoChange-1~8 $end
$var wire 1 @ COUNTER|LPM_COUNTER_component|auto_generated|counter_cella1~COUT $end
$var wire 1 A COUNTER|LPM_COUNTER_component|auto_generated|counter_cella1~COUTCOUT1_1 $end
$var wire 1 B COUNTER|LPM_COUNTER_component|auto_generated|counter_cella2~COUT $end
$var wire 1 C COUNTER|LPM_COUNTER_component|auto_generated|counter_cella2~COUTCOUT1_1 $end
$var wire 1 D COUNTER|LPM_COUNTER_component|auto_generated|counter_cella3~COUT $end
$var wire 1 E COUNTER|LPM_COUNTER_component|auto_generated|counter_cella3~COUTCOUT1_1 $end
$var wire 1 F COUNTER|LPM_COUNTER_component|auto_generated|counter_cella4~COUT $end
$var wire 1 G NoChange-1~5 $end
$var wire 1 H NCHANGED|LPM_COMPARE_component|auto_generated|_~0 $end
$var wire 1 I NoChange-1~6 $end
$var wire 1 J NoChange-1~7 $end
$var wire 1 K NoChange-1~2 $end
$var wire 1 L NoChange-1~3 $end
$var wire 1 M NoChange-1~0 $end
$var wire 1 N NoChange-1~1 $end
$var wire 1 O NoChange-1~4_combout $end
$var wire 1 P NoChange-1~combout $end
$var wire 1 Q inst1~combout $end
$var wire 1 R COUNTER|LPM_COUNTER_component|auto_generated|counter_cella5~COUT $end
$var wire 1 S COUNTER|LPM_COUNTER_component|auto_generated|counter_cella5~COUTCOUT1_1 $end
$var wire 1 T COUNTER|LPM_COUNTER_component|auto_generated|counter_cella6~COUT $end
$var wire 1 U COUNTER|LPM_COUNTER_component|auto_generated|counter_cella6~COUTCOUT1_1 $end
$var wire 1 V MbiggerN|LPM_COMPARE_component|auto_generated|op_1~37_cout0 $end
$var wire 1 W MbiggerN|LPM_COMPARE_component|auto_generated|op_1~37COUT1_41 $end
$var wire 1 X MbiggerN|LPM_COMPARE_component|auto_generated|op_1~32_cout0 $end
$var wire 1 Y MbiggerN|LPM_COMPARE_component|auto_generated|op_1~32COUT1_42 $end
$var wire 1 Z MbiggerN|LPM_COMPARE_component|auto_generated|op_1~27_cout0 $end
$var wire 1 [ MbiggerN|LPM_COMPARE_component|auto_generated|op_1~27COUT1_43 $end
$var wire 1 \ MbiggerN|LPM_COMPARE_component|auto_generated|op_1~22_cout0 $end
$var wire 1 ] MbiggerN|LPM_COMPARE_component|auto_generated|op_1~22COUT1_44 $end
$var wire 1 ^ MbiggerN|LPM_COMPARE_component|auto_generated|op_1~17_cout $end
$var wire 1 _ MbiggerN|LPM_COMPARE_component|auto_generated|op_1~12_cout0 $end
$var wire 1 ` MbiggerN|LPM_COMPARE_component|auto_generated|op_1~12COUT1_45 $end
$var wire 1 a MbiggerN|LPM_COMPARE_component|auto_generated|op_1~7_cout0 $end
$var wire 1 b MbiggerN|LPM_COMPARE_component|auto_generated|op_1~7COUT1_46 $end
$var wire 1 c MbiggerN|LPM_COMPARE_component|auto_generated|op_1~0_combout $end
$var wire 1 d inst9~combout $end
$var wire 1 e MComp|LPM_COMPARE_component|auto_generated|aeb_int~2 $end
$var wire 1 f MComp|LPM_COMPARE_component|auto_generated|aeb_int~1 $end
$var wire 1 g MComp|LPM_COMPARE_component|auto_generated|aeb_int~0 $end
$var wire 1 h MComp|LPM_COMPARE_component|auto_generated|aeb_int~3 $end
$var wire 1 i MComp|LPM_COMPARE_component|auto_generated|aeb_int~4_combout $end
$var wire 1 j NComp|LPM_COMPARE_component|auto_generated|aeb_int~3 $end
$var wire 1 k NComp|LPM_COMPARE_component|auto_generated|aeb_int~2 $end
$var wire 1 l NComp|LPM_COMPARE_component|auto_generated|aeb_int~0 $end
$var wire 1 m NComp|LPM_COMPARE_component|auto_generated|_~0_combout $end
$var wire 1 n NComp|LPM_COMPARE_component|auto_generated|aeb_int~1_combout $end
$var wire 1 o inst6~combout $end
$var wire 1 p AndTClear~combout $end
$var wire 1 q T~regout $end
$var wire 1 r M~combout [7] $end
$var wire 1 s M~combout [6] $end
$var wire 1 t M~combout [5] $end
$var wire 1 u M~combout [4] $end
$var wire 1 v M~combout [3] $end
$var wire 1 w M~combout [2] $end
$var wire 1 x M~combout [1] $end
$var wire 1 y M~combout [0] $end
$var wire 1 z MREG|q [7] $end
$var wire 1 { MREG|q [6] $end
$var wire 1 | MREG|q [5] $end
$var wire 1 } MREG|q [4] $end
$var wire 1 ~ MREG|q [3] $end
$var wire 1 !! MREG|q [2] $end
$var wire 1 "! MREG|q [1] $end
$var wire 1 #! MREG|q [0] $end
$var wire 1 $! N~combout [7] $end
$var wire 1 %! N~combout [6] $end
$var wire 1 &! N~combout [5] $end
$var wire 1 '! N~combout [4] $end
$var wire 1 (! N~combout [3] $end
$var wire 1 )! N~combout [2] $end
$var wire 1 *! N~combout [1] $end
$var wire 1 +! N~combout [0] $end
$var wire 1 ,! COUNTER|LPM_COUNTER_component|auto_generated|safe_q [7] $end
$var wire 1 -! COUNTER|LPM_COUNTER_component|auto_generated|safe_q [6] $end
$var wire 1 .! COUNTER|LPM_COUNTER_component|auto_generated|safe_q [5] $end
$var wire 1 /! COUNTER|LPM_COUNTER_component|auto_generated|safe_q [4] $end
$var wire 1 0! COUNTER|LPM_COUNTER_component|auto_generated|safe_q [3] $end
$var wire 1 1! COUNTER|LPM_COUNTER_component|auto_generated|safe_q [2] $end
$var wire 1 2! COUNTER|LPM_COUNTER_component|auto_generated|safe_q [1] $end
$var wire 1 3! COUNTER|LPM_COUNTER_component|auto_generated|safe_q [0] $end
$var wire 1 4! NREG|q [7] $end
$var wire 1 5! NREG|q [6] $end
$var wire 1 6! NREG|q [5] $end
$var wire 1 7! NREG|q [4] $end
$var wire 1 8! NREG|q [3] $end
$var wire 1 9! NREG|q [2] $end
$var wire 1 :! NREG|q [1] $end
$var wire 1 ;! NREG|q [0] $end
$upscope $end
$upscope $end
$enddefinitions $end
#0
$dumpvars
0!
b0 "
b0 #
1$
1%
0&
0.
0-
0,
0+
0*
0)
0(
0'
0/
10
x1
12
13
14
15
16
17
18
19
1:
1;
0<
0=
0>
1?
1@
1A
0B
0C
1D
1E
0F
1G
0H
1I
1J
1K
1L
1M
1N
1O
1P
1Q
1R
1S
0T
0U
0V
0W
1X
1Y
0Z
0[
1\
1]
0^
1_
0`
0a
1b
0c
0d
1e
1f
1g
1h
1i
1j
1k
1l
0m
1n
1o
1p
0q
0y
0x
0w
0v
0u
0t
0s
0r
0#!
0"!
0!!
0~
0}
0|
0{
0z
0+!
0*!
0)!
0(!
0'!
0&!
0%!
0$!
03!
02!
01!
00!
0/!
0.!
0-!
0,!
0;!
0:!
09!
08!
07!
06!
05!
04!
$end
#10000
1!
1<
#20000
0!
0<
#30000
1!
1<
#40000
0!
0<
#50000
1!
1<
#60000
0!
0<
#70000
1!
1<
#80000
b1000 "
0!
1v
0<
0K
0O
0P
0$
#90000
b100 #
1!
1)!
1<
0J
19!
1~
1J
0e
0k
0]
0\
1K
0i
1^
1O
0o
1c
1P
1&
0p
1d
1$
0Q
13!
1>
1=
1.
0h
0j
#100000
0!
0<
0d
#110000
1!
1<
1d
12!
03!
0A
0@
0>
0=
1-
0.
1A
1@
#120000
0!
0<
0d
#130000
1!
1<
1d
13!
1>
1=
1.
0A
0@
#140000
0!
0<
0d
#150000
1!
1<
1d
11!
02!
03!
1C
1B
1A
1@
0>
0=
1,
1k
0-
1h
1j
0.
0C
0B
1o
1q
0%
#160000
0!
0<
0d
#170000
1!
1<
1d
13!
1>
1=
1.
0h
0j
0o
#180000
0!
0<
0d
#190000
1!
1<
1d
12!
03!
0A
0@
0>
0=
1-
0.
1C
1B
1A
1@
0C
0B
#200000
0!
0<
0d
#210000
1!
1<
1d
13!
1>
1=
1.
0A
0@
1C
1B
#220000
0!
0<
0d
#230000
1!
1<
1d
10!
01!
02!
03!
0E
0D
0C
0B
1A
1@
0>
0=
1+
1e
0k
0,
0-
1h
1j
0.
1E
1D
1i
1o
1Q
0q
00!
0+
0e
1%
0i
0o
0Q
#240000
0!
0<
0d
#250000
1!
1<
1d
13!
1>
1=
1.
0h
0j
#260000
0!
0<
0d
#270000
1!
1<
1d
12!
03!
0A
0@
0>
0=
1-
0.
1A
1@
#280000
0!
0<
0d
#290000
1!
1<
1d
13!
1>
1=
1.
0A
0@
#300000
0!
0<
0d
#310000
1!
1<
1d
11!
02!
03!
1C
1B
1A
1@
0>
0=
1,
1k
0-
1h
1j
0.
0C
0B
1o
1q
0%
#320000
0!
0<
0d
#330000
1!
1<
1d
13!
1>
1=
1.
0h
0j
0o
#340000
0!
0<
0d
#350000
1!
1<
1d
12!
03!
0A
0@
0>
0=
1-
0.
1C
1B
1A
1@
0C
0B
#360000
0!
0<
0d
#370000
1!
1<
1d
13!
1>
1=
1.
0A
0@
1C
1B
#380000
0!
0<
0d
#390000
1!
1<
1d
10!
01!
02!
03!
0E
0D
0C
0B
1A
1@
0>
0=
1+
1e
0k
0,
0-
1h
1j
0.
1E
1D
1i
1o
1Q
0q
00!
0+
0e
1%
0i
0o
0Q
#400000
0!
0<
0d
#410000
1!
1<
1d
13!
1>
1=
1.
0h
0j
#420000
0!
0<
0d
#430000
1!
1<
1d
12!
03!
0A
0@
0>
0=
1-
0.
1A
1@
#440000
0!
0<
0d
#450000
1!
1<
1d
13!
1>
1=
1.
0A
0@
#460000
0!
0<
0d
#470000
1!
1<
1d
11!
02!
03!
1C
1B
1A
1@
0>
0=
1,
1k
0-
1h
1j
0.
0C
0B
1o
1q
0%
#480000
0!
0<
0d
#490000
1!
1<
1d
13!
1>
1=
1.
0h
0j
0o
#500000
0!
0<
0d
#510000
1!
1<
1d
12!
03!
0A
0@
0>
0=
1-
0.
1C
1B
1A
1@
0C
0B
#520000
0!
0<
0d
#530000
1!
1<
1d
13!
1>
1=
1.
0A
0@
1C
1B
#540000
0!
0<
0d
#550000
1!
1<
1d
10!
01!
02!
03!
0E
0D
0C
0B
1A
1@
0>
0=
1+
1e
0k
0,
0-
1h
1j
0.
1E
1D
1i
1o
1Q
0q
00!
0+
0e
1%
0i
0o
0Q
#560000
0!
0<
0d
#570000
1!
1<
1d
13!
1>
1=
1.
0h
0j
#580000
0!
0<
0d
#590000
1!
1<
1d
12!
03!
0A
0@
0>
0=
1-
0.
1A
1@
#600000
0!
0<
0d
#610000
1!
1<
1d
13!
1>
1=
1.
0A
0@
#620000
0!
0<
0d
#630000
1!
1<
1d
11!
02!
03!
1C
1B
1A
1@
0>
0=
1,
1k
0-
1h
1j
0.
0C
0B
1o
1q
0%
#640000
0!
0<
0d
#650000
1!
1<
1d
13!
1>
1=
1.
0h
0j
0o
#660000
0!
0<
0d
#670000
1!
1<
1d
12!
03!
0A
0@
0>
0=
1-
0.
1C
1B
1A
1@
0C
0B
#680000
0!
0<
0d
#690000
1!
1<
1d
13!
1>
1=
1.
0A
0@
1C
1B
#700000
0!
0<
0d
#710000
1!
1<
1d
10!
01!
02!
03!
0E
0D
0C
0B
1A
1@
0>
0=
1+
1e
0k
0,
0-
1h
1j
0.
1E
1D
1i
1o
1Q
0q
00!
0+
0e
1%
0i
0o
0Q
#720000
0!
0<
0d
#730000
1!
1<
1d
13!
1>
1=
1.
0h
0j
#740000
0!
0<
0d
#750000
1!
1<
1d
12!
03!
0A
0@
0>
0=
1-
0.
1A
1@
#760000
0!
0<
0d
#770000
1!
1<
1d
13!
1>
1=
1.
0A
0@
#780000
0!
0<
0d
#790000
1!
1<
1d
11!
02!
03!
1C
1B
1A
1@
0>
0=
1,
1k
0-
1h
1j
0.
0C
0B
1o
1q
0%
#800000
0!
0<
0d
#810000
1!
1<
1d
13!
1>
1=
1.
0h
0j
0o
#820000
0!
0<
0d
#830000
1!
1<
1d
12!
03!
0A
0@
0>
0=
1-
0.
1C
1B
1A
1@
0C
0B
#840000
0!
0<
0d
#850000
1!
1<
1d
13!
1>
1=
1.
0A
0@
1C
1B
#860000
0!
0<
0d
#870000
1!
1<
1d
10!
01!
02!
03!
0E
0D
0C
0B
1A
1@
0>
0=
1+
1e
0k
0,
0-
1h
1j
0.
1E
1D
1i
1o
1Q
0q
00!
0+
0e
1%
0i
0o
0Q
#880000
0!
0<
0d
#890000
1!
1<
1d
13!
1>
1=
1.
0h
0j
#900000
0!
0<
0d
#910000
1!
1<
1d
12!
03!
0A
0@
0>
0=
1-
0.
1A
1@
#920000
0!
0<
0d
#930000
1!
1<
1d
13!
1>
1=
1.
0A
0@
#940000
b110 #
b111 #
b11 #
0!
1+!
1*!
0)!
0<
0?
0J
0d
0P
0$
1p
1Q
02!
03!
1A
1@
0>
0=
0-
1h
1j
0.
#950000
1!
1<
1d
09!
1:!
1;!
1J
0j
1?
1k
1P
1$
0p
0Q
#960000
0!
0<
0d
#970000
1!
1<
1d
13!
1>
1=
1.
0h
#980000
0!
0<
0d
#990000
1!
1<
1d
12!
03!
0A
0@
0>
0=
1-
0.
1A
1@
#1000000
0!
0<
0d
#1010000
1!
1<
1d
13!
1>
1=
1.
1j
0A
0@
1o
1q
0%
#1020000
0!
0<
0d
#1030000
1!
1<
1d
11!
02!
03!
1C
1B
1A
1@
0>
0=
1,
0k
0-
1h
0j
0.
0C
0B
0o
#1040000
0!
0<
0d
#1050000
1!
1<
1d
13!
1>
1=
1.
0h
#1060000
0!
0<
0d
#1070000
1!
1<
1d
12!
03!
0A
0@
0>
0=
1-
0.
1C
1B
1A
1@
0C
0B
#1080000
0!
0<
0d
#1090000
1!
1<
1d
13!
1>
1=
1.
1j
0A
0@
1C
1B
#1100000
0!
0<
0d
#1110000
1!
1<
1d
10!
01!
02!
03!
0E
0D
0C
0B
1A
1@
0>
0=
1+
1e
0,
0-
1h
0j
0.
1E
1D
1i
1o
1Q
0q
00!
0+
0e
1k
1%
0i
0o
0Q
#1120000
0!
0<
0d
#1130000
1!
1<
1d
13!
1>
1=
1.
0h
#1140000
0!
0<
0d
#1150000
1!
1<
1d
12!
03!
0A
0@
0>
0=
1-
0.
1A
1@
#1160000
0!
0<
0d
#1170000
1!
1<
1d
13!
1>
1=
1.
1j
0A
0@
1o
1q
0%
#1180000
0!
0<
0d
#1190000
1!
1<
1d
11!
02!
03!
1C
1B
1A
1@
0>
0=
1,
0k
0-
1h
0j
0.
0C
0B
0o
#1200000
0!
0<
0d
#1210000
1!
1<
1d
13!
1>
1=
1.
0h
#1220000
0!
0<
0d
#1230000
1!
1<
1d
12!
03!
0A
0@
0>
0=
1-
0.
1C
1B
1A
1@
0C
0B
#1240000
0!
0<
0d
#1250000
1!
1<
1d
13!
1>
1=
1.
1j
0A
0@
1C
1B
#1260000
0!
0<
0d
#1270000
1!
1<
1d
10!
01!
02!
03!
0E
0D
0C
0B
1A
1@
0>
0=
1+
1e
0,
0-
1h
0j
0.
1E
1D
1i
1o
1Q
0q
00!
0+
0e
1k
1%
0i
0o
0Q
#1280000
0!
0<
0d
#1290000
1!
1<
1d
13!
1>
1=
1.
0h
#1300000
0!
0<
0d
#1310000
1!
1<
1d
12!
03!
0A
0@
0>
0=
1-
0.
1A
1@
#1320000
0!
0<
0d
#1330000
1!
1<
1d
13!
1>
1=
1.
1j
0A
0@
1o
1q
0%
#1340000
0!
0<
0d
#1350000
1!
1<
1d
11!
02!
03!
1C
1B
1A
1@
0>
0=
1,
0k
0-
1h
0j
0.
0C
0B
0o
#1360000
0!
0<
0d
#1370000
1!
1<
1d
13!
1>
1=
1.
0h
#1380000
0!
0<
0d
#1390000
1!
1<
1d
12!
03!
0A
0@
0>
0=
1-
0.
1C
1B
1A
1@
0C
0B
#1400000
0!
0<
0d
#1410000
1!
1<
1d
13!
1>
1=
1.
1j
0A
0@
1C
1B
#1420000
0!
0<
0d
#1430000
1!
1<
1d
10!
01!
02!
03!
0E
0D
0C
0B
1A
1@
0>
0=
1+
1e
0,
0-
1h
0j
0.
1E
1D
1i
1o
1Q
0q
00!
0+
0e
1k
1%
0i
0o
0Q
#1440000
0!
0<
0d
#1450000
1!
1<
1d
13!
1>
1=
1.
0h
#1460000
0!
0<
0d
#1470000
1!
1<
1d
12!
03!
0A
0@
0>
0=
1-
0.
1A
1@
#1480000
0!
0<
0d
#1490000
1!
1<
1d
13!
1>
1=
1.
1j
0A
0@
1o
1q
0%
#1500000
b111 #
0!
1)!
0<
0J
0d
0P
0$
1p
1Q
0q
02!
03!
1A
1@
0>
0=
0-
1h
0j
0.
1%
0o
#1510000
1!
1<
1d
19!
1J
0k
1P
1$
0p
0Q
#1520000
0!
0<
0d
#1530000
1!
1<
1d
13!
1>
1=
1.
0h
#1540000
0!
0<
0d
#1550000
1!
1<
1d
12!
03!
0A
0@
0>
0=
1-
0.
1A
1@
#1560000
0!
0<
0d
#1570000
1!
1<
1d
13!
1>
1=
1.
1j
0A
0@
#1580000
0!
0<
0d
#1590000
1!
1<
1d
11!
02!
03!
1C
1B
1A
1@
0>
0=
1,
1k
0-
1h
0j
0.
0C
0B
#1600000
0!
0<
0d
#1610000
1!
1<
1d
13!
1>
1=
1.
0h
#1620000
0!
0<
0d
#1630000
1!
1<
1d
12!
03!
0A
0@
0>
0=
1-
0.
1C
1B
1A
1@
0C
0B
#1640000
0!
0<
0d
#1650000
1!
1<
1d
13!
1>
1=
1.
1j
0A
0@
1o
1C
1B
1q
0%
#1660000
0!
0<
0d
#1670000
1!
1<
1d
10!
01!
02!
03!
0E
0D
0C
0B
1A
1@
0>
0=
1+
1e
0k
0,
0-
1h
0j
0.
1E
1D
1i
0o
1o
1Q
0q
00!
0+
0e
1%
0i
0o
0Q
#1680000
0!
0<
0d
#1690000
1!
1<
1d
13!
1>
1=
1.
0h
#1700000
0!
0<
0d
#1710000
1!
1<
1d
12!
03!
0A
0@
0>
0=
1-
0.
1A
1@
#1720000
0!
0<
0d
#1730000
1!
1<
1d
13!
1>
1=
1.
1j
0A
0@
#1740000
0!
0<
0d
#1750000
1!
1<
1d
11!
02!
03!
1C
1B
1A
1@
0>
0=
1,
1k
0-
1h
0j
0.
0C
0B
#1760000
0!
0<
0d
#1770000
1!
1<
1d
13!
1>
1=
1.
0h
#1780000
0!
0<
0d
#1790000
1!
1<
1d
12!
03!
0A
0@
0>
0=
1-
0.
1C
1B
1A
1@
0C
0B
#1800000
0!
0<
0d
#1810000
1!
1<
1d
13!
1>
1=
1.
1j
0A
0@
1o
1C
1B
1q
0%
#1820000
0!
0<
0d
#1830000
1!
1<
1d
10!
01!
02!
03!
0E
0D
0C
0B
1A
1@
0>
0=
1+
1e
0k
0,
0-
1h
0j
0.
1E
1D
1i
0o
1o
1Q
0q
00!
0+
0e
1%
0i
0o
0Q
#1840000
0!
0<
0d
#1850000
1!
1<
1d
13!
1>
1=
1.
0h
#1860000
0!
0<
0d
#1870000
1!
1<
1d
12!
03!
0A
0@
0>
0=
1-
0.
1A
1@
#1880000
0!
0<
0d
#1890000
1!
1<
1d
13!
1>
1=
1.
1j
0A
0@
#1900000
0!
0<
0d
#1910000
1!
1<
1d
11!
02!
03!
1C
1B
1A
1@
0>
0=
1,
1k
0-
1h
0j
0.
0C
0B
#1920000
0!
0<
0d
#1930000
1!
1<
1d
13!
1>
1=
1.
0h
#1940000
0!
0<
0d
#1950000
1!
1<
1d
12!
03!
0A
0@
0>
0=
1-
0.
1C
1B
1A
1@
0C
0B
#1960000
0!
0<
0d
#1970000
1!
1<
1d
13!
1>
1=
1.
1j
0A
0@
1o
1C
1B
1q
0%
#1980000
0!
0<
0d
#1990000
1!
1<
1d
10!
01!
02!
03!
0E
0D
0C
0B
1A
1@
0>
0=
1+
1e
0k
0,
0-
1h
0j
0.
1E
1D
1i
0o
1o
1Q
0q
00!
0+
0e
1%
0i
0o
0Q
#2000000
0!
0<
0d
#2010000
1!
1<
1d
13!
1>
1=
1.
0h
#2020000
0!
0<
0d
#2030000
1!
1<
1d
12!
03!
0A
0@
0>
0=
1-
0.
1A
1@
#2040000
0!
0<
0d
#2050000
1!
1<
1d
13!
1>
1=
1.
1j
0A
0@
#2060000
0!
0<
0d
#2070000
1!
1<
1d
11!
02!
03!
1C
1B
1A
1@
0>
0=
1,
1k
0-
1h
0j
0.
0C
0B
#2080000
0!
0<
0d
#2090000
1!
1<
1d
13!
1>
1=
1.
0h
#2100000
0!
0<
0d
#2110000
1!
1<
1d
12!
03!
0A
0@
0>
0=
1-
0.
1C
1B
1A
1@
0C
0B
#2120000
0!
0<
0d
#2130000
1!
1<
1d
13!
1>
1=
1.
1j
0A
0@
1o
1C
1B
1q
0%
#2140000
0!
0<
0d
#2150000
1!
1<
1d
10!
01!
02!
03!
0E
0D
0C
0B
1A
1@
0>
0=
1+
1e
0k
0,
0-
1h
0j
0.
1E
1D
1i
0o
1o
1Q
0q
00!
0+
0e
1%
0i
0o
0Q
#2160000
0!
0<
0d
#2170000
1!
1<
1d
13!
1>
1=
1.
0h
#2180000
0!
0<
0d
#2190000
1!
1<
1d
12!
03!
0A
0@
0>
0=
1-
0.
1A
1@
#2200000
b101 #
b100 #
b0 #
0!
0+!
0*!
0)!
0<
0?
0J
0d
0P
0$
1p
1Q
02!
0-
1h
#2210000
1!
1<
1d
09!
0:!
0;!
1J
1j
1?
1k
1P
1o
1$
0p
0Q
#2220000
0!
0<
0d
#2230000
1!
1<
1d
13!
1>
1=
1.
0h
0j
0o
#2240000
0!
0<
0d
#2250000
1!
1<
1d
12!
03!
0A
0@
0>
0=
1-
0.
1A
1@
#2260000
0!
0<
0d
#2270000
1!
1<
1d
13!
1>
1=
1.
0A
0@
#2280000
0!
0<
0d
#2290000
1!
1<
1d
11!
02!
03!
1C
1B
1A
1@
0>
0=
1,
0k
0-
1h
1j
0.
0C
0B
#2300000
0!
0<
0d
#2310000
1!
1<
1d
13!
1>
1=
1.
0h
0j
#2320000
b0 "
0!
0v
0<
0K
0d
0O
0P
0$
1p
1Q
01!
03!
0>
0=
0,
1k
0.
1h
1j
1o
#2330000
1!
1<
1d
0~
1e
1]
1\
1K
1i
0^
1O
0c
1P
0&
0d
1$
#2340000
0!
0<
#2350000
1!
1<
#2360000
b100000 "
b110000 "
0!
1u
1t
0<
0N
0O
0P
0$
#2370000
1!
1<
1|
1}
0f
1N
0_
1^
0i
1O
1a
1c
1P
1&
1d
1$
0p
0Q
#2380000
0!
0<
0d
#2390000
1!
1<
1d
13!
1>
1=
1.
0h
0j
0o
#2400000
0!
0<
0d
#2410000
1!
1<
1d
12!
03!
0A
0@
0>
0=
1-
0.
1A
1@
#2420000
0!
0<
0d
#2430000
1!
1<
1d
13!
1>
1=
1.
0A
0@
#2440000
0!
0<
0d
#2450000
1!
1<
1d
11!
02!
03!
1C
1B
1A
1@
0>
0=
1,
0e
0k
0-
1h
1j
0.
0C
0B
#2460000
b1000 #
b1100 #
0!
1)!
1(!
0<
0J
0d
0P
0$
1p
1Q
01!
0,
1e
1k
1o
#2470000
1!
1<
1d
18!
19!
0k
1J
0o
1P
1$
0p
0Q
#2480000
0!
0<
0d
#2490000
1!
1<
1d
13!
1>
1=
1.
0h
0j
#2500000
0!
0<
0d
#2510000
1!
1<
1d
12!
03!
0A
0@
0>
0=
1-
0.
1A
1@
#2520000
0!
0<
0d
#2530000
1!
1<
1d
13!
1>
1=
1.
0A
0@
#2540000
0!
0<
0d
#2550000
1!
1<
1d
11!
02!
03!
1C
1B
1A
1@
0>
0=
1,
0e
0-
1h
1j
0.
0C
0B
#2560000
0!
0<
0d
#2570000
1!
1<
1d
13!
1>
1=
1.
0h
0j
#2580000
0!
0<
0d
#2590000
1!
1<
1d
12!
03!
0A
0@
0>
0=
1-
0.
1C
1B
1A
1@
0C
0B
#2600000
0!
0<
0d
#2610000
1!
1<
1d
13!
1>
1=
1.
0A
0@
1C
1B
#2620000
0!
0<
0d
#2630000
1!
1<
1d
10!
01!
02!
03!
0E
0D
0C
0B
1A
1@
0>
0=
1+
0,
0-
1h
1j
0.
1E
1D
#2640000
0!
0<
0d
#2650000
1!
1<
1d
13!
1>
1=
1.
0h
0j
#2660000
0!
0<
0d
#2670000
1!
1<
1d
12!
03!
0A
0@
0>
0=
1-
0.
1A
1@
#2680000
0!
0<
0d
#2690000
1!
1<
1d
13!
1>
1=
1.
0A
0@
#2700000
0!
0<
0d
#2710000
1!
1<
1d
11!
02!
03!
1C
1B
1A
1@
0>
0=
1,
1k
0-
1h
1j
0.
0E
0D
0C
0B
1o
1E
1D
1q
0%
#2720000
0!
0<
0d
#2730000
1!
1<
1d
13!
1>
1=
1.
0h
0j
0o
#2740000
0!
0<
0d
#2750000
1!
1<
1d
12!
03!
0A
0@
0>
0=
1-
0.
1C
1B
1A
1@
0E
0D
0C
0B
1E
1D
#2760000
0!
0<
0d
#2770000
1!
1<
1d
13!
1>
1=
1.
0A
0@
1C
1B
0E
0D
#2780000
0!
0<
0d
#2790000
1!
1<
1d
1/!
00!
01!
02!
03!
1F
1E
1D
0C
0B
1A
1@
0>
0=
1*
0l
0+
1e
0k
0,
0-
1h
1j
0.
0F
0n
#2800000
0!
0<
0d
#2810000
1!
1<
1d
13!
1>
1=
1.
0h
0j
#2820000
0!
0<
0d
#2830000
1!
1<
1d
12!
03!
0A
0@
0>
0=
1-
0.
1A
1@
#2840000
0!
0<
0d
#2850000
1!
1<
1d
13!
1>
1=
1.
0A
0@
#2860000
0!
0<
0d
#2870000
1!
1<
1d
11!
02!
03!
1C
1B
1A
1@
0>
0=
1,
0e
0-
1h
1j
0.
0C
0B
#2880000
0!
0<
0d
#2890000
1!
1<
1d
13!
1>
1=
1.
0h
0j
#2900000
0!
0<
0d
#2910000
1!
1<
1d
12!
03!
0A
0@
0>
0=
1-
0.
1C
1B
1A
1@
0C
0B
#2920000
0!
0<
0d
#2930000
1!
1<
1d
13!
1>
1=
1.
0A
0@
1C
1B
#2940000
0!
0<
0d
#2950000
1!
1<
1d
10!
01!
02!
03!
0E
0D
0C
0B
1A
1@
0>
0=
1+
0,
0-
1h
1j
0.
1F
1E
1D
0F
#2960000
0!
0<
0d
#2970000
1!
1<
1d
13!
1>
1=
1.
0h
0j
#2980000
0!
0<
0d
#2990000
1!
1<
1d
12!
03!
0A
0@
0>
0=
1-
0.
1A
1@
#3000000
0!
0<
0d
#3010000
1!
1<
1d
13!
1>
1=
1.
0A
0@
#3020000
0!
0<
0d
#3030000
1!
1<
1d
11!
02!
03!
1C
1B
1A
1@
0>
0=
1,
1k
0-
1h
1j
0.
0E
0D
0C
0B
1F
1E
1D
0F
#3040000
0!
0<
0d
#3050000
1!
1<
1d
13!
1>
1=
1.
0h
0j
#3060000
0!
0<
0d
#3070000
1!
1<
1d
12!
03!
0A
0@
0>
0=
1-
0.
1C
1B
1A
1@
0E
0D
0C
0B
1F
1E
1D
0F
#3080000
0!
0<
0d
#3090000
1!
1<
1d
13!
1>
1=
1.
0A
0@
1C
1B
0E
0D
1F
#3100000
0!
0<
0d
#3110000
1!
1<
1d
1.!
0/!
00!
01!
02!
03!
0S
0F
1E
1D
0C
0B
1A
1@
0>
0=
1)
0*
0+
1e
0k
0,
0-
1h
1j
0.
#3120000
0!
0<
0d
#3130000
1!
1<
1d
13!
1>
1=
1.
0h
0j
#3140000
0!
0<
0d
#3150000
1!
1<
1d
12!
03!
0A
0@
0>
0=
1-
0.
1A
1@
#3160000
0!
0<
0d
#3170000
1!
1<
1d
13!
1>
1=
1.
0A
0@
#3180000
0!
0<
0d
#3190000
1!
1<
1d
11!
02!
03!
1C
1B
1A
1@
0>
0=
1,
0e
0-
1h
1j
0.
0C
0B
#3200000
0!
0<
0d
#3210000
1!
1<
1d
13!
1>
1=
1.
0h
0j
#3220000
0!
0<
0d
#3230000
1!
1<
1d
12!
03!
0A
0@
0>
0=
1-
0.
1C
1B
1A
1@
0C
0B
#3240000
0!
0<
0d
#3250000
1!
1<
1d
13!
1>
1=
1.
0A
0@
1C
1B
#3260000
0!
0<
0d
#3270000
1!
1<
1d
10!
01!
02!
03!
0E
0D
0C
0B
1A
1@
0>
0=
1+
0,
0-
1h
1j
0.
1E
1D
