Semester_5/SIFO/SIFO_Lab_3/simulation/modelsim/RAM+hz_testbench.vcd
$date
	Tue Oct 18 10:05:15 2022
$end
$version
	Questa Intel Starter FPGA Edition Version 2021.2
$end
$timescale
	1ps
$end

$scope module RAM_testbench $end
$var parameter 32 ! ADDRESS_WIDTH $end
$var parameter 32 " DATA_WIDTH $end
$var parameter 32 # DATA_DEPTH $end
$var reg 1 $ clk $end
$var reg 1 % write_enable $end
$var reg 1 & out_is_active $end
$var reg 3 ' address [2:0] $end
$var reg 8 ( in_data [7:0] $end
$var wire 1 ) temp_out_data [7] $end
$var wire 1 * temp_out_data [6] $end
$var wire 1 + temp_out_data [5] $end
$var wire 1 , temp_out_data [4] $end
$var wire 1 - temp_out_data [3] $end
$var wire 1 . temp_out_data [2] $end
$var wire 1 / temp_out_data [1] $end
$var wire 1 0 temp_out_data [0] $end
$var wire 1 1 out_data [7] $end
$var wire 1 2 out_data [6] $end
$var wire 1 3 out_data [5] $end
$var wire 1 4 out_data [4] $end
$var wire 1 5 out_data [3] $end
$var wire 1 6 out_data [2] $end
$var wire 1 7 out_data [1] $end
$var wire 1 8 out_data [0] $end
$var integer 32 9 i $end

$scope module dut $end
$var parameter 32 : ADDRESS_WIDTH $end
$var parameter 32 ; DATA_WIDTH $end
$var parameter 32 < DATA_DEPTH $end
$var wire 1 = clk $end
$var wire 1 > address [2] $end
$var wire 1 ? address [1] $end
$var wire 1 @ address [0] $end
$var wire 1 A in_data [7] $end
$var wire 1 B in_data [6] $end
$var wire 1 C in_data [5] $end
$var wire 1 D in_data [4] $end
$var wire 1 E in_data [3] $end
$var wire 1 F in_data [2] $end
$var wire 1 G in_data [1] $end
$var wire 1 H in_data [0] $end
$var wire 1 ) out_data [7] $end
$var wire 1 * out_data [6] $end
$var wire 1 + out_data [5] $end
$var wire 1 , out_data [4] $end
$var wire 1 - out_data [3] $end
$var wire 1 . out_data [2] $end
$var wire 1 / out_data [1] $end
$var wire 1 0 out_data [0] $end
$var wire 1 I write_enable $end
$upscope $end

$scope module wire_hz_1 $end
$var parameter 32 J DATA_WIDTH $end
$var wire 1 ) in_data [7] $end
$var wire 1 * in_data [6] $end
$var wire 1 + in_data [5] $end
$var wire 1 , in_data [4] $end
$var wire 1 - in_data [3] $end
$var wire 1 . in_data [2] $end
$var wire 1 / in_data [1] $end
$var wire 1 0 in_data [0] $end
$var wire 1 K out_is_active $end
$var wire 1 1 out_data [7] $end
$var wire 1 2 out_data [6] $end
$var wire 1 3 out_data [5] $end
$var wire 1 4 out_data [4] $end
$var wire 1 5 out_data [3] $end
$var wire 1 6 out_data [2] $end
$var wire 1 7 out_data [1] $end
$var wire 1 8 out_data [0] $end
$upscope $end
$upscope $end
$enddefinitions $end
#0
$dumpvars
0$
0%
0&
b0 '
b0 (
b11 !
b1000 "
b1000 #
b11 :
b1000 ;
b1000 <
b1000 J
b0 9
x0
x/
x.
x-
x,
x+
x*
x)
z8
z7
z6
z5
z4
z3
z2
z1
0K
0I
0H
0G
0F
0E
0D
0C
0B
0A
0@
0?
0>
0=
$end
#5000
1$
1=
#10000
0$
0=
#15000
1$
1=
#20000
1%
0$
1I
0=
#25000
1$
1=
b1 '
b1 9
1@
00
0/
0.
0-
0,
0+
0*
0)
x0
x/
x.
x-
x,
x+
x*
x)
#30000
0$
0=
#35000
1$
1=
b10 '
b11 (
b10 9
1H
1G
0@
1?
00
0/
0.
0-
0,
0+
0*
0)
x0
x/
x.
x-
x,
x+
x*
x)
#40000
0$
0=
#45000
1$
1=
b11 '
b110 (
b11 9
0H
1F
1@
10
1/
0.
0-
0,
0+
0*
0)
x0
x/
x.
x-
x,
x+
x*
x)
#50000
0$
0=
#55000
1$
1=
b100 '
b1001 (
b100 9
1H
0G
0F
1E
0@
0?
1>
00
1/
1.
0-
0,
0+
0*
0)
x0
x/
x.
x-
x,
x+
x*
x)
#60000
0$
0=
#65000
1$
1=
b101 '
b1100 (
b101 9
0H
1F
1@
10
0/
0.
1-
0,
0+
0*
0)
x0
x/
x.
x-
x,
x+
x*
x)
#70000
0$
0=
#75000
1$
1=
b110 '
b1111 (
b110 9
1H
1G
0@
1?
00
0/
1.
1-
0,
0+
0*
0)
x0
x/
x.
x-
x,
x+
x*
x)
#80000
0$
0=
#85000
1$
1=
b111 '
b10010 (
b111 9
0H
0F
0E
1D
1@
10
1/
1.
1-
0,
0+
0*
0)
x0
x/
x.
x-
x,
x+
x*
x)
#90000
0$
0=
#95000
1$
1=
b0 '
b10101 (
b1000 9
b0 9
1H
0G
1F
0@
0?
0>
00
1/
0.
0-
1,
0+
0*
0)
0/
0,
#100000
0$
0=
#105000
1$
1=
10
1.
1,
#110000
0$
0=
#115000
1$
1=
0%
1&
0I
1K
18
07
16
05
14
03
02
01
#120000
0$
0=
#125000
1$
1=
#130000
0$
0=
#135000
1$
1=
#140000
0$
0=
#145000
1$
1=
b1 '
b1 9
1@
00
0.
0,
08
06
04
#150000
0$
0=
#155000
1$
1=
b10 '
b10 9
0@
1?
10
1/
18
17
#160000
0$
0=
#165000
1$
1=
b11 '
b11 9
1@
00
1.
08
16
#170000
0$
0=
#175000
1$
1=
b100 '
b100 9
0@
0?
1>
10
0/
0.
1-
18
07
06
15
#180000
0$
0=
#185000
1$
1=
b101 '
b101 9
1@
00
1.
08
16
#190000
0$
0=
#195000
1$
1=
b110 '
b110 9
0@
1?
10
1/
18
17
#200000
0$
0=
#205000
1$
1=
b111 '
b111 9
1@
00
0.
0-
1,
08
06
05
14
#210000
0$
0=
#215000
1$
1=
b0 '
b1000 9
0@
0?
0>
10
0/
1.
18
07
16
